{
  "type": "service_account",
  "project_id": "demoproject-319207",
  "private_key_id": "9bd4ea6d74460fd82af5caedbc4e685f0ab30c12",
  "private_key": "-----BEGIN PRIVATE KEY-----\nMIIEvQIBADANBgkqhkiG9w0BAQEFAASCBKcwggSjAgEAAoIBAQCpcRdIw5eHF7wT\n/3SFZaxkXefNrT1fx7LYq6ZOa7tbWsaB8Oh4sCgHsuqVZFp8shpM2VUJdnLTg3jb\nrq9vo3MYOw4UHNc1rhz1M+fHRjoziJ+p4OGBV3+eyV1agWAETVpwqIi0dflQK+Y+\nmEwfDbxg6VzyWVBe97w3H0xu8QU8EIWXu4nnVw6SrgUEKvnYCiWqpKJR1fFJUZL9\nQT4wjZ/0VkDRfwtMHyRrp0VUepusz4fh91dt3Wrbngp5pT6pGen4U1lxR8DBKvYo\naoLvWPrLfN4q8wmCiuM+x3qWnSfkmcZtiaEraZH1ReU+OgazwJGpNtv1mv4tMgSC\nNRVvDTy9AgMBAAECggEAHCauOqhHCD/OP02lhfWIIxNi9s3922g/SODufCrz8XqZ\nw8RLAKTWZxO3sQ2qPFC5g+O7zXBWJYQQqVb9eMEhgc4V9GDSSe3dNnPi4ehuClp8\nRGoYrTePUXSdGPNTs4NH2l3LJfL6cp0d32/IKISiCUExmxDHBJreNL5IzEnTl9CA\nTLqit0JoqUN6N7Ec1WJ6+vZqt38sE+qYYD9BHNzZAI7DeIq2V98DXz0KZKZGmRSJ\nmu4tuEbj4xZjc23xiOgtQq7K6rBURtQRv/YszWtECLIwz/UEfoYweK+i0ztqUuKM\nmWO6yNVIXsdusCq/0Z8F/xOZjgBag0vcYI37sJvdtQKBgQDZW7rZ5d+pg2r7l56S\naQUo11bYDRKBE36K2Eoxg3H+0ZiRa9wd2tY9zZVlxH1YzyU+RoXmpsHS05X9j787\npy+m01qTksyEiJj8+DubZzu8dYQ1fjrQJeAViL+aC3TchkVU+91Qgys21hwpXzZP\nT8LlAkWEMF/wDSmB7g+lK2hDwwKBgQDHkJ0pP6ixNIAruyOp/5lyGQOAadny4HBI\n7gsSoTJILLkfjg5ak5pguNDrgXWOLiI6AhVUwdOvLsuXCCH5eSPui70mSy87RNvJ\nHVArt2rmGzQFZHEVaHw2PuVdtKpAm9650EZ3qD/1MMUWFAG74WGFSquDywxJZ9YL\n7i25dv71fwKBgHYt8tUgsFApfRSYZoZyhXSkSLqluObnY4k4enabYnLLISoIPCEb\naBsoWU+A2ypbToOispErH/1yP34jFzXm+/i3t+q/CWYSIySAD2C6a3dXae/v1yhv\nP3xV4t9t1TdF5hKD8twgxXFGTv+LnirXUj9T0dpCtxb9ARF9D5KdnE4jAoGAAN7y\nsKFkfRF7lbVFXJKO+t59E2xi1RqBou/XAIfPjl0Tmb2m9mI6hD2KO9zexHYTFCm6\nKhqGb/dGUCxq6YnLzFizxJ0DYcDVLLWCCg7M2qA3w+ZCUBOapynzGkuVip6jhDAS\nfqcvUEScN5Jyx30eTdSblwGl1hQr7PVnIa4RQsUCgYEA1YUIlpAfKdHuF2e/4Weq\nojqenUmCbNFZ4MHWJwgEriNY/kkyBHxFzqdwVIJLK0+LxgfIIXF4KbnJFvMkcSNw\n6tvHDIkGH3dMwLitKUOhGj9aEdzUTwokoZslN2h+9Etcstqjn8BA5gOy4W4YFtUV\nFuthOQsckOnkzWMvUZQs8oA=\n-----END PRIVATE KEY-----\n",
  "client_email": "demoproject@demoproject-319207.iam.gserviceaccount.com",
  "client_id": "108373887182854420562",
  "auth_uri": "https://accounts.google.com/o/oauth2/auth",
  "token_uri": "https://oauth2.googleapis.com/token",
  "auth_provider_x509_cert_url": "https://www.googleapis.com/oauth2/v1/certs",
  "client_x509_cert_url": "https://www.googleapis.com/robot/v1/metadata/x509/demoproject%40demoproject-319207.iam.gserviceaccount.com"
}